{
  "artifactGenerations" : [ ],
  "artifactId" : "my-project-test",
  "groupId" : "testing",
  "metamodelDependencies" : [ ],
  "projectDependencies" : [ ],
  "projectId" : "SAMPLE-46615377",
  "projectStructureVersion" : {
    "extensionVersion" : 1,
    "version" : 13
  }
}